…
``` r
brewing_materials_raw
```

    ## # A tibble: 1,440 x 9
    ##    data_type material_type  year month type  month_current month_prior_year
    ##    <chr>     <chr>         <dbl> <dbl> <chr>         <dbl>            <dbl>
    ##  1 Pounds o~ Grain Produc~  2008     1 Malt~     374165152        365300134
    ##  2 Pounds o~ Grain Produc~  2008     1 Corn~      57563519         41647092
    ##  3 Pounds o~ Grain Produc~  2008     1 Rice~      72402143         81050102
    ##  4 Pounds o~ Grain Produc~  2008     1 Barl~       3800844          2362162
    ##  5 Pounds o~ Grain Produc~  2008     1 Whea~       1177186          1195381
    ##  6 Pounds o~ Total Grain ~  2008     1 Tota~     509108844        491554871
    ##  7 Pounds o~ Non-Grain Pr~  2008     1 Suga~      78358212         83664091
    ##  8 Pounds o~ Non-Grain Pr~  2008     1 Hops~       4506546          2037754
    ##  9 Pounds o~ Non-Grain Pr~  2008     1 Hops~        621912           411166
    ## 10 Pounds o~ Non-Grain Pr~  2008     1 Other       1291615           766735
    ## # ... with 1,430 more rows, and 2 more variables: ytd_current <dbl>,
    ## #   ytd_prior_year <dbl>
…
# Lets see another summary for these models

``` r
beer_models %>% 
    mutate(glance = map(model, glance)) %>% 
    unnest(glance)
```

    ## # A tibble: 1,001 x 14
    ##    splits id    model r.squared adj.r.squared  sigma statistic  p.value    df
    ##    <list> <chr> <lis>     <dbl>         <dbl>  <dbl>     <dbl>    <dbl> <int>
    ##  1 <spli~ Boot~ <lm>      0.980         0.979 1.06e7     4177. 2.56e-75     1
    ##  2 <spli~ Boot~ <lm>      0.979         0.979 1.04e7     4102. 5.52e-75     1
    ##  3 <spli~ Boot~ <lm>      0.979         0.979 1.04e7     4123. 4.46e-75     1
    ##  4 <spli~ Boot~ <lm>      0.976         0.976 1.12e7     3581. 1.79e-72     1
    ##  5 <spli~ Boot~ <lm>      0.973         0.973 1.21e7     3157. 3.77e-70     1
    ##  6 <spli~ Boot~ <lm>      0.972         0.972 1.22e7     3049. 1.65e-69     1
    ##  7 <spli~ Boot~ <lm>      0.980         0.980 1.03e7     4342. 4.89e-76     1
    ##  8 <spli~ Boot~ <lm>      0.975         0.975 1.16e7     3408. 1.46e-71     1
    ##  9 <spli~ Boot~ <lm>      0.973         0.973 1.17e7     3167. 3.26e-70     1
    ## 10 <spli~ Boot~ <lm>      0.979         0.979 1.02e7     4129. 4.17e-75     1
    ## # ... with 991 more rows, and 5 more variables: logLik <dbl>, AIC <dbl>,
    ## #   BIC <dbl>, deviance <dbl>, df.residual <int>
…
